{
  "reportConfigResponse": [{
    "id": 5,
    "name": "Tom Usage Report",
    "reportType": "USAGE",
    "reportStartDate": 1485453595000,
    "reportEndDate": null
  }, {
    "id": 3,
    "name": "IMF Usage Report",
    "reportType": "USAGE",
    "reportStartDate": 1485238420000,
    "reportEndDate": null
  }]
}